#サムネイル,タイトル,作者,掲載用URL
140_268_oretoku.jpg,俺得修学旅行〜男は女装した俺だけ!!,奥森ボウイ,http://a1.ad-station.jp/site/c?k=CSlXGR
140_268_hatuetti.jpg,初エッチの相手は…妹!?,ぽろり/鱗,http://a1.ad-station.jp/site/c?k=q5ZJab
140_268_ukkari.jpg,うっかり入っちゃった!? 従姉妹と密着ゲーム中,なめぞう/赤髭,http://a1.ad-station.jp/site/c?k=xg2Hgz
140_268_desk.jpg,デスクの下で、愛をさけぶ〜曖昧でイビツなふたり〜,咲良将司,http://a1.ad-station.jp/site/c?k=1Ei0iX
140_268_yojohan.jpg,四畳半で密着3Pお泊り会!,ヒロアキ/鱗,http://a1.ad-station.jp/site/c?k=ldKd4U
140_268_otonanoharowa.jpg,大人のハローワーク〜こんな仕事させられちゃいました〜,高瀬むぅ,http://a1.ad-station.jp/site/c?k=B88ZOZ
140_268_dokyusei.jpg,同級生は親父の嫁。ベッドの上では俺の嫁。,りゅうとひさし,http://a1.ad-station.jp/site/c?k=QUfyMb
140_268_tsugaku.jpg,秘密の通学電車〜シツケの時間〜,REDLIGHT,http://a1.ad-station.jp/site/c?k=jlXW8e
140_268_nuresugi.jpg,濡れ過ぎ人妻お姉さん〜年上美女の反応がやらしすぎる件〜,織田non,http://a1.ad-station.jp/site/c?k=w0Rc6X
140_268_okusamahaserebitti.jpg,奥さまはセレビッチ,終焉,http://a1.ad-station.jp/site/c?k=3qf5Le